<svg width="50" height="50" viewBox="0 0 50 50" fill="none" xmlns="http://www.w3.org/2000/svg">
<g clip-path="url(#clip0)">
<path d="M40.8454 24.3264L39.5753 14.0088L37.1952 14.3017L37.1962 14.3001L32.5819 11.7033C32.0897 11.4264 31.5249 11.3058 30.9625 11.3578L23.6768 12.0316C22.7812 12.1144 21.9809 12.6255 21.529 13.4032L16.3939 22.2418C16.0147 22.8945 16.3124 23.7315 17.0185 23.9982L17.2286 24.0775C17.6327 24.2301 18.048 24.3185 18.4631 24.3531L17.8125 24.9198L16.5107 26.0539L12.8083 29.2121C12.1492 29.7862 12.0807 30.7853 12.6549 31.4443L13.0304 31.8745C13.7677 32.72 15.051 32.8078 15.8981 32.0703L17.3131 33.6934C17.7732 34.2217 18.4472 34.4554 19.0948 34.3757C19.4839 34.3278 19.8636 34.1665 20.1807 33.8892L21.5942 35.5123C22.0559 36.042 22.7298 36.2741 23.3774 36.1944C23.7665 36.1465 24.1463 35.9867 24.4635 35.7095L25.2317 36.3733C25.9692 37.2203 27.2539 37.3079 28.101 36.5704L29.1452 35.6594L37.9241 28.8223L37.9336 28.8136L41.3972 28.8102L40.8454 24.3264Z" fill="#E5985F"/>
<path d="M37.0829 26.1555L37.0735 26.1642L28.2946 33.0013L27.2504 33.9123C26.4034 34.6498 25.1185 34.5622 24.381 33.7152L23.6129 33.0514C23.2957 33.3286 22.9158 33.4885 22.5267 33.5363C21.8792 33.616 21.2054 33.3839 20.7435 32.8542L19.3301 31.2311C19.0129 31.5083 18.6332 31.6696 18.2441 31.7176C17.5966 31.7973 16.9226 31.5637 16.4625 31.0353L15.0475 29.4122C14.3223 30.0437 13.2781 30.0683 12.5298 29.532C12.146 30.1107 12.1767 30.8951 12.6551 31.4443L13.0307 31.8745C13.768 32.72 15.0513 32.8078 15.8983 32.0703L17.3134 33.6933C17.7734 34.2217 18.4475 34.4554 19.095 34.3757C19.4842 34.3278 19.8638 34.1665 20.1809 33.8891L21.5944 35.5124C22.0561 36.0421 22.7301 36.2742 23.3776 36.1945C23.7668 36.1466 24.1466 35.9868 24.4637 35.7095L25.2319 36.3734C25.9694 37.2204 27.2542 37.308 28.1012 36.5705L29.1455 35.6595L37.9243 28.8224L37.9338 28.8137L41.3975 28.8103L41.0143 25.6974L37.0829 26.1555Z" fill="#CC793C"/>
<path d="M38.6815 30.6183L33.9779 26.5627L32.6699 25.4357L31.734 24.6297L27.7099 21.161L28.1747 17.2049C28.3319 15.8669 27.4896 14.6143 26.1912 14.255L17.4192 11.8278C16.4911 11.571 15.5101 12.0016 15.0711 12.8587L13.968 15.0121L9.23283 14.6907L8.01994 25.0152L7.4928 29.502L12.102 29.8086L12.1115 29.8173L21.7406 38.1173L22.7899 39.0226C23.641 39.7554 24.9252 39.6607 25.6581 38.8096L27.0623 37.1801C27.381 37.4556 27.7618 37.6133 28.1512 37.6591C28.7992 37.7353 29.4718 37.4994 29.9306 36.9671L31.3351 35.3362C31.6537 35.6117 32.0343 35.771 32.4238 35.8167C33.0717 35.8928 33.7445 35.6554 34.2016 35.1245L35.6075 33.4936C36.4586 34.2264 37.7414 34.1315 38.474 33.2819L38.8473 32.8496C39.4178 32.1875 39.3437 31.1888 38.6815 30.6183Z" fill="#F9D1AD"/>
<path d="M38.6816 30.6183L37.2489 29.383C37.7145 30.0005 37.7049 30.8789 37.1794 31.4888L36.7833 31.9477C36.0055 32.8496 34.6438 32.9504 33.7403 32.1724L32.2477 33.9037C31.7625 34.4673 31.0483 34.7192 30.3604 34.6385C29.9471 34.5899 29.5431 34.4209 29.2048 34.1284L27.7138 35.8598C27.2268 36.4248 26.5128 36.6752 25.8249 36.5944C25.4115 36.5459 25.0073 36.3784 24.6691 36.0859L23.1782 37.8158C22.8974 38.1421 22.5397 38.3619 22.1554 38.4752L22.7901 39.0227C23.6411 39.7555 24.9254 39.6608 25.6582 38.8097L27.0625 37.1802C27.3812 37.4557 27.7619 37.6134 28.1514 37.6592C28.7993 37.7353 29.472 37.4995 29.9307 36.9673L31.3352 35.3363C31.6539 35.6118 32.0345 35.7711 32.4239 35.8168C33.0718 35.8929 33.7446 35.6555 34.2017 35.1246L35.6077 33.4937C36.4587 34.2265 37.7416 34.1316 38.4742 33.282L38.8474 32.8497C39.4178 32.1875 39.3438 31.1889 38.6816 30.6183Z" fill="#EFB98F"/>
<path d="M36.0838 32.9507L33.5065 30.7284C33.2004 30.4643 32.7378 30.4985 32.4735 30.8049C32.2093 31.1112 32.2436 31.5737 32.55 31.8379L35.1227 34.0562L35.6077 33.4937C35.8012 33.6604 36.0177 33.782 36.2444 33.8639C36.4117 33.5662 36.3524 33.1822 36.0838 32.9507Z" fill="#EFB98F"/>
<path d="M31.963 35.7056C32.1395 35.4063 32.083 35.0148 31.8105 34.7798L29.4953 32.7836C29.1889 32.5196 28.7265 32.5538 28.4623 32.8601C28.1981 33.1665 28.2324 33.6289 28.5387 33.8931L30.854 35.8893C30.8549 35.8901 30.8559 35.8908 30.8569 35.8915L31.3352 35.3361C31.5259 35.501 31.7392 35.6234 31.963 35.7056Z" fill="#EFB98F"/>
<path d="M12.3422 29.7983L11.7843 30.535C11.1768 31.3372 11.3346 32.4801 12.1368 33.0877C12.9391 33.6952 14.0819 33.5374 14.6896 32.7352L15.2475 31.9985C15.855 31.1962 15.6972 30.0533 14.8949 29.4457C14.0927 28.8382 12.9497 28.996 12.3422 29.7983Z" fill="#F29F5C"/>
<path d="M15.7402 31.3478L14.6896 32.7352C14.0821 33.5374 14.2399 34.6803 15.0421 35.2879C15.8443 35.8954 16.9872 35.7376 17.5948 34.9354L18.6455 33.548C19.253 32.7457 19.0952 31.6028 18.293 30.9952C17.4906 30.3877 16.3478 30.5455 15.7402 31.3478Z" fill="#F29F5C"/>
<path d="M19.0266 33.0445L17.5947 34.9353C16.9872 35.7376 17.145 36.8805 17.9473 37.4881C18.7495 38.0956 19.8924 37.9378 20.5 37.1355L21.9319 35.2447C22.5394 34.4425 22.3816 33.2996 21.5794 32.692C20.7771 32.0844 19.6343 32.2423 19.0266 33.0445Z" fill="#F29F5C"/>
<path d="M22.015 35.1349L20.5 37.1354C19.8925 37.9377 20.0503 39.0805 20.8525 39.6881C21.6548 40.2957 22.7976 40.1379 23.4053 39.3356L24.9203 37.3351C25.5278 36.5329 25.37 35.39 24.5678 34.7824C23.7654 34.1749 22.6225 34.3327 22.015 35.1349Z" fill="#F29F5C"/>
<path d="M37.1961 14.3001L32.5818 11.7033C32.0897 11.4264 31.5248 11.3058 30.9624 11.3578L23.6767 12.0316C22.7811 12.1144 21.9808 12.6255 21.5289 13.4032L16.3938 22.2418C16.0146 22.8946 16.3123 23.7315 17.0184 23.9982L17.2285 24.0775C19.1108 24.7884 21.2366 24.1834 22.4624 22.588L24.4299 20.0275C24.4299 20.0275 29.1593 25.5034 34.3663 19.1086" fill="#F29F5C"/>
<path d="M49.9945 30.1898L47.5811 10.5853C47.5574 10.3925 47.4581 10.217 47.305 10.0975C47.1518 9.97798 46.9576 9.92427 46.7647 9.9479L41.1214 10.6426C39.6557 10.8231 38.6101 12.1623 38.7905 13.628L40.7284 29.3701C40.8952 30.7252 42.0525 31.7212 43.3846 31.7212C43.4932 31.7212 43.6033 31.7146 43.7138 31.701L49.3571 31.0063C49.7585 30.9568 50.0439 30.5913 49.9945 30.1898Z" fill="#006AFF"/>
<path d="M49.9944 30.1898L49.7294 28.0379C49.6093 28.2142 49.4175 28.3401 49.1892 28.3683L43.2735 29.0965C43.1577 29.1107 43.0424 29.1177 42.9285 29.1177C41.9324 29.1177 41.03 28.5862 40.5308 27.7661L40.7282 29.37C40.895 30.7252 42.0523 31.7212 43.3845 31.7212C43.4931 31.7212 43.6031 31.7145 43.7136 31.701L49.3569 31.0062C49.7584 30.9568 50.0438 30.5913 49.9944 30.1898Z" fill="#0E448E"/>
<path d="M8.87867 10.6425L3.23533 9.94781C3.04227 9.92408 2.84822 9.97789 2.6951 10.0974C2.54198 10.217 2.44266 10.3924 2.41893 10.5852L0.0055601 30.1898C-0.0438538 30.5913 0.241594 30.9568 0.64296 31.0062L6.2863 31.7009C6.39684 31.7145 6.50671 31.7212 6.6154 31.7212C7.94742 31.7212 9.10484 30.7251 9.27164 29.37L11.2095 13.6279C11.39 12.1623 10.3444 10.823 8.87867 10.6425Z" fill="#D70009"/>
<path d="M0.00556161 30.1898L0.270502 28.0379C0.390619 28.2142 0.582415 28.3401 0.810734 28.3683L6.72643 29.0965C6.84225 29.1107 6.95758 29.1177 7.07145 29.1177C8.06754 29.1177 8.96998 28.5862 9.4692 27.7661L9.27174 29.37C9.10494 30.7252 7.94762 31.7212 6.6155 31.7212C6.5069 31.7212 6.39684 31.7145 6.2864 31.701L0.643059 31.0062C0.241498 30.9568 -0.0438523 30.5913 0.00556161 30.1898Z" fill="#E33700"/>
<path d="M45.3123 28.4666C46.0942 28.4666 46.7281 27.8327 46.7281 27.0508C46.7281 26.2688 46.0942 25.6349 45.3123 25.6349C44.5304 25.6349 43.8965 26.2688 43.8965 27.0508C43.8965 27.8327 44.5304 28.4666 45.3123 28.4666Z" fill="#EBEEF2"/>
<path d="M4.60832 28.4666C5.39025 28.4666 6.02413 27.8327 6.02413 27.0508C6.02413 26.2688 5.39025 25.6349 4.60832 25.6349C3.82639 25.6349 3.1925 26.2688 3.1925 27.0508C3.1925 27.8327 3.82639 28.4666 4.60832 28.4666Z" fill="#EBEEF2"/>
</g>
<defs>
<clipPath id="clip0">
<rect width="50" height="50" fill="white"/>
</clipPath>
</defs>
</svg>
