<svg width="183" height="57" viewBox="0 0 183 57" fill="none" xmlns="http://www.w3.org/2000/svg">
<path d="M177.1 57H6.10002C2.96502 57 0.400024 54.435 0.400024 51.3V5.7C0.400024 2.565 2.96502 0 6.10002 0H177.1C180.235 0 182.8 2.565 182.8 5.7V51.3C182.8 54.435 180.235 57 177.1 57Z" fill="white"/>
<path fill-rule="evenodd" clip-rule="evenodd" d="M16.075 14.9727V42.0303C16.075 42.9721 16.6195 43.7864 17.4105 44.1749L33.0684 28.4969L17.4168 12.825C16.6224 13.2123 16.075 14.0285 16.075 14.9727ZM20.9199 43.3622L38.0339 33.4687L34.4173 29.8474L20.9199 43.3622ZM43.3535 26.6048C43.9228 27.0411 44.2899 27.7285 44.2899 28.5017C44.2899 29.2633 43.9339 29.9415 43.3793 30.3785L39.7441 32.4801L35.766 28.4971L39.7414 24.5165L43.3535 26.6048ZM38.0312 23.5277L20.93 13.6415L34.4173 27.1462L38.0312 23.5277Z" fill="#181818"/>
<path fill-rule="evenodd" clip-rule="evenodd" d="M101.718 48.3074C101.005 47.7374 100.435 46.7399 100.15 46.1699L102.43 45.1724C102.573 45.4574 102.858 45.8849 103.143 46.3124C103.713 46.8824 104.568 47.4524 105.423 47.4524C106.278 47.4524 107.275 47.0249 107.845 46.3124C108.273 45.5999 108.558 44.8874 108.558 43.8899V43.0349C106.848 45.1724 103.285 44.8874 101.29 42.6074C99.1525 40.3274 99.1525 36.4799 101.29 34.1999C103.428 32.0624 106.563 31.7774 108.415 33.7724V32.7749H110.838V43.4624C110.838 46.1699 109.84 47.7374 108.558 48.7349C107.703 49.4474 106.42 49.7324 105.28 49.7324C103.998 49.5899 102.715 49.1624 101.718 48.3074ZM161.425 48.8774L163.848 43.1774L159.573 33.3449H161.995L164.988 40.3274L167.98 33.3449H170.403L163.848 48.8774H161.425ZM149.883 43.4624C149.17 42.7499 148.885 41.7524 148.885 40.7549C148.885 39.8999 149.17 39.0449 149.74 38.4749C150.738 37.4774 152.163 37.0499 153.73 37.0499C154.728 37.0499 155.583 37.1924 156.295 37.6199C156.295 35.9099 154.87 35.1974 153.73 35.1974C152.733 35.1974 151.735 35.7674 151.308 36.7649L149.17 35.9099C149.598 34.9124 150.738 33.0599 153.588 33.0599C155.013 33.0599 156.438 33.4874 157.293 34.4849C158.148 35.4824 158.433 36.6224 158.433 38.1899V44.1749H156.01V43.1774C155.725 43.6049 155.155 43.8899 154.728 44.1749C154.158 44.4599 153.445 44.6024 152.733 44.6024C151.878 44.4599 150.595 44.1749 149.883 43.4624ZM73.93 38.3324C73.93 35.4824 76.0675 32.3474 79.915 32.3474C83.62 32.3474 85.9 35.4824 85.9 38.3324C85.9 41.1824 83.7625 44.3174 79.915 44.3174C76.0675 44.3174 73.93 41.1824 73.93 38.3324ZM86.755 38.3324C86.755 35.4824 88.8925 32.3474 92.74 32.3474C96.445 32.3474 98.725 35.4824 98.725 38.3324C98.725 41.1824 96.5875 44.3174 92.74 44.3174C89.035 44.3174 86.755 41.1824 86.755 38.3324ZM57.8275 41.4674C54.265 37.9049 54.4075 32.0624 57.97 28.3574C59.8225 26.5049 62.1025 25.6499 64.525 25.6499C66.805 25.6499 69.085 26.5049 70.795 28.2149L69.085 30.0674C66.52 27.5024 62.3875 27.6449 59.965 30.2099C57.4 32.9174 57.4 37.0499 59.965 39.7574C62.53 42.4649 66.805 42.6074 69.37 39.8999C70.225 39.0449 70.51 37.9049 70.6525 36.7649H64.6675V34.1999H73.075C73.2175 34.7699 73.2175 35.4824 73.2175 36.1949C73.2175 38.3324 72.3625 40.4699 70.9375 41.8949C69.37 43.4624 67.09 44.3174 64.81 44.3174C62.245 44.1749 59.68 43.3199 57.8275 41.4674ZM118.105 42.4649C115.968 40.1849 115.968 36.3374 118.105 33.9149C120.243 31.6349 123.805 31.6349 125.8 33.9149C126.513 34.6274 126.94 35.6249 127.368 36.6224L119.53 39.8999C119.958 40.8974 120.955 41.7524 122.38 41.7524C123.663 41.7524 124.518 41.3249 125.373 40.0424L127.51 41.4674C127.225 41.7524 126.94 42.0374 126.798 42.3224C124.375 44.7449 120.243 44.7449 118.105 42.4649ZM132.925 44.1749V28.3574H138.055C141.048 28.3574 143.47 30.4949 143.47 33.0599C143.47 35.6249 141.333 37.7624 138.625 37.7624H135.49V44.0324H132.925V44.1749ZM144.895 44.1749V28.3574H147.318V44.1749H144.895ZM112.69 43.8899V26.2199H115.255V43.8899H112.69ZM156.153 39.4724C155.583 39.0449 154.728 38.9024 153.873 38.9024C152.163 38.9024 151.165 39.7574 151.165 40.7549C151.165 41.7524 152.163 42.3224 153.16 42.3224C154.585 42.3224 156.153 41.1824 156.153 39.4724ZM83.1925 38.3324C83.1925 36.6224 82.0525 34.7699 79.915 34.7699C77.7775 34.7699 76.6375 36.6224 76.6375 38.3324C76.6375 40.0424 77.7775 41.8949 79.915 41.8949C81.91 41.8949 83.1925 40.0424 83.1925 38.3324ZM96.0175 38.3324C96.0175 36.6224 94.8775 34.7699 92.74 34.7699C90.6025 34.7699 89.4625 36.6224 89.4625 38.3324C89.4625 40.0424 90.6025 41.8949 92.74 41.8949C94.8775 41.8949 96.0175 40.0424 96.0175 38.3324ZM108.7 39.3299C108.7 39.1874 108.7 39.0449 108.843 38.9024C108.843 38.7599 108.843 38.4749 108.843 38.3324C108.843 38.1899 108.843 37.9049 108.843 37.7624V37.6199C108.843 37.4774 108.7 37.1924 108.7 37.0499C108.273 35.6249 106.99 34.6274 105.708 34.6274C103.998 34.6274 102.573 36.3374 102.573 38.1899C102.573 40.1849 103.998 41.7524 105.85 41.7524C106.99 41.8949 108.13 40.8974 108.7 39.3299ZM119.103 38.0474L124.375 35.7674C123.805 34.7699 122.95 34.4849 122.238 34.4849C120.1 34.6274 118.818 36.9074 119.103 38.0474ZM140.905 33.2024C140.905 31.7774 139.765 30.7799 138.198 30.7799H135.348V35.7674H138.34C139.765 35.7674 140.905 34.6274 140.905 33.2024Z" fill="#181818"/>
<path fill-rule="evenodd" clip-rule="evenodd" d="M163.277 46.0275H163.135V45.885H163.277H163.135V46.0275H163.277Z" fill="white"/>
<path fill-rule="evenodd" clip-rule="evenodd" d="M163.562 46.0275C163.562 45.885 163.562 45.885 163.562 46.0275C163.42 45.885 163.42 45.885 163.562 46.0275C163.42 46.0275 163.42 46.0275 163.562 46.0275ZM163.562 45.885C163.562 46.0275 163.562 46.0275 163.562 45.885C163.562 46.0275 163.42 46.0275 163.562 45.885C163.42 45.885 163.562 45.885 163.562 45.885Z" fill="white"/>
<path fill-rule="evenodd" clip-rule="evenodd" d="M163.705 45.885H163.562H163.705V46.0275V45.885Z" fill="white"/>
<path d="M61.5078 16.6169C61.4433 17.2996 61.1913 17.8328 60.7519 18.2166C60.3124 18.5974 59.728 18.7878 58.9985 18.7878C58.4887 18.7878 58.039 18.6677 57.6494 18.4275C57.2626 18.1843 56.9638 17.8401 56.7529 17.3948C56.5419 16.9495 56.4321 16.4324 56.4233 15.8435V15.2458C56.4233 14.6423 56.5302 14.1106 56.7441 13.6506C56.9579 13.1907 57.2641 12.8362 57.6625 12.5872C58.0639 12.3381 58.5268 12.2136 59.0512 12.2136C59.7573 12.2136 60.3256 12.4055 60.7563 12.7893C61.187 13.1731 61.4374 13.7151 61.5078 14.4153H60.4003C60.3476 13.9553 60.2128 13.6243 59.996 13.4221C59.7822 13.217 59.4672 13.1145 59.0512 13.1145C58.5678 13.1145 58.1957 13.2917 57.935 13.6462C57.6772 13.9978 57.5453 14.5149 57.5395 15.1975V15.7644C57.5395 16.4558 57.6625 16.9832 57.9086 17.3464C58.1577 17.7097 58.5209 17.8914 58.9985 17.8914C59.435 17.8914 59.7631 17.7932 59.9828 17.5969C60.2026 17.4006 60.3417 17.074 60.4003 16.6169H61.5078ZM62.2021 16.2786C62.2021 15.8127 62.2944 15.3938 62.4789 15.0217C62.6635 14.6467 62.9228 14.3596 63.2568 14.1604C63.5908 13.9583 63.9745 13.8572 64.4081 13.8572C65.0497 13.8572 65.5698 14.0637 65.9682 14.4768C66.3696 14.8899 66.5864 15.4377 66.6186 16.1204L66.623 16.3708C66.623 16.8396 66.5322 17.2585 66.3505 17.6277C66.1718 17.9968 65.914 18.2825 65.5771 18.4846C65.2431 18.6868 64.8564 18.7878 64.4169 18.7878C63.746 18.7878 63.2084 18.5652 62.8041 18.1199C62.4028 17.6716 62.2021 17.0754 62.2021 16.3313V16.2786ZM63.27 16.3708C63.27 16.8601 63.371 17.2439 63.5732 17.5222C63.7753 17.7976 64.0566 17.9353 64.4169 17.9353C64.7773 17.9353 65.0571 17.7947 65.2563 17.5134C65.4584 17.2322 65.5595 16.8206 65.5595 16.2786C65.5595 15.7981 65.4555 15.4172 65.2475 15.136C65.0424 14.8547 64.7626 14.7141 64.4081 14.7141C64.0595 14.7141 63.7827 14.8533 63.5776 15.1316C63.3725 15.407 63.27 15.8201 63.27 16.3708ZM68.5302 13.9451L68.561 14.4417C68.895 14.052 69.352 13.8572 69.9321 13.8572C70.5678 13.8572 71.0029 14.1003 71.2372 14.5867C71.5829 14.1003 72.0693 13.8572 72.6962 13.8572C73.2206 13.8572 73.6103 14.0022 73.8652 14.2922C74.123 14.5823 74.2548 15.01 74.2607 15.5754V18.7H73.1928V15.6062C73.1928 15.3044 73.1269 15.0833 72.9951 14.9426C72.8632 14.802 72.645 14.7317 72.3403 14.7317C72.0971 14.7317 71.8979 14.7976 71.7426 14.9294C71.5903 15.0583 71.4833 15.2283 71.4218 15.4392L71.4262 18.7H70.3583V15.571C70.3437 15.0115 70.058 14.7317 69.5014 14.7317C69.0737 14.7317 68.7704 14.906 68.5917 15.2546V18.7H67.5239V13.9451H68.5302ZM76.4931 18.7H75.4252V13.9451H76.4931V18.7ZM75.3593 12.7102C75.3593 12.5461 75.4106 12.4099 75.5131 12.3015C75.6186 12.1931 75.768 12.1389 75.9614 12.1389C76.1547 12.1389 76.3041 12.1931 76.4096 12.3015C76.5151 12.4099 76.5678 12.5461 76.5678 12.7102C76.5678 12.8713 76.5151 13.0061 76.4096 13.1145C76.3041 13.22 76.1547 13.2727 75.9614 13.2727C75.768 13.2727 75.6186 13.22 75.5131 13.1145C75.4106 13.0061 75.3593 12.8713 75.3593 12.7102ZM78.6508 13.9451L78.6816 14.4944C79.0331 14.0696 79.4946 13.8572 80.0659 13.8572C81.0561 13.8572 81.56 14.4241 81.5776 15.5579V18.7H80.5097V15.6194C80.5097 15.3176 80.4438 15.095 80.312 14.9514C80.183 14.8049 79.9706 14.7317 79.6747 14.7317C79.2441 14.7317 78.9233 14.9265 78.7123 15.3162V18.7H77.6445V13.9451H78.6508ZM82.4828 16.2874C82.4828 15.5491 82.6557 14.9602 83.0014 14.5208C83.35 14.0784 83.8115 13.8572 84.3857 13.8572C84.9277 13.8572 85.3539 14.0461 85.6645 14.4241L85.7128 13.9451H86.6752V18.5549C86.6752 19.179 86.4804 19.6711 86.0908 20.0315C85.704 20.3918 85.1811 20.572 84.5219 20.572C84.1733 20.572 83.832 20.4988 83.498 20.3523C83.1669 20.2087 82.915 20.0198 82.7421 19.7854L83.2475 19.1438C83.5756 19.5334 83.9799 19.7283 84.4604 19.7283C84.8149 19.7283 85.0947 19.6316 85.2997 19.4382C85.5048 19.2478 85.6074 18.9666 85.6074 18.5945V18.2737C85.2997 18.6165 84.8896 18.7878 84.3769 18.7878C83.8203 18.7878 83.3647 18.5667 83.0102 18.1243C82.6586 17.6819 82.4828 17.0696 82.4828 16.2874ZM83.5463 16.3796C83.5463 16.8572 83.643 17.2336 83.8364 17.509C84.0327 17.7815 84.3036 17.9177 84.6494 17.9177C85.08 17.9177 85.3994 17.7332 85.6074 17.364V15.2722C85.4052 14.9119 85.0888 14.7317 84.6581 14.7317C84.3066 14.7317 84.0327 14.8708 83.8364 15.1492C83.643 15.4275 83.5463 15.8376 83.5463 16.3796ZM92.6826 17.408C92.6826 17.2175 92.6035 17.0725 92.4453 16.9729C92.29 16.8733 92.0307 16.7854 91.6674 16.7092C91.3041 16.6331 91.0009 16.5364 90.7578 16.4192C90.2245 16.1614 89.9579 15.7878 89.9579 15.2986C89.9579 14.8884 90.1308 14.5457 90.4765 14.2703C90.8222 13.9949 91.2617 13.8572 91.7949 13.8572C92.3632 13.8572 92.8217 13.9978 93.1703 14.2791C93.5219 14.5603 93.6977 14.925 93.6977 15.3733H92.6298C92.6298 15.1682 92.5536 14.9983 92.4013 14.8635C92.249 14.7258 92.0468 14.657 91.7949 14.657C91.5605 14.657 91.3686 14.7112 91.2192 14.8196C91.0727 14.928 90.9995 15.073 90.9995 15.2546C90.9995 15.4187 91.0683 15.5461 91.206 15.637C91.3437 15.7278 91.622 15.8201 92.041 15.9138C92.4599 16.0046 92.788 16.1145 93.0253 16.2434C93.2656 16.3694 93.4428 16.5217 93.5571 16.7004C93.6743 16.8792 93.7328 17.0959 93.7328 17.3508C93.7328 17.7786 93.5556 18.1257 93.2011 18.3923C92.8466 18.656 92.3823 18.7878 91.808 18.7878C91.4184 18.7878 91.0712 18.7175 90.7665 18.5769C90.4619 18.4363 90.2245 18.2429 90.0546 17.9968C89.8847 17.7507 89.7997 17.4856 89.7997 17.2014H90.8369C90.8515 17.4534 90.9467 17.6482 91.1225 17.7859C91.2983 17.9207 91.5312 17.988 91.8212 17.988C92.1025 17.988 92.3163 17.9353 92.4628 17.8298C92.6093 17.7214 92.6826 17.5808 92.6826 17.408ZM94.4667 16.2786C94.4667 15.8127 94.559 15.3938 94.7436 15.0217C94.9282 14.6467 95.1874 14.3596 95.5214 14.1604C95.8554 13.9583 96.2392 13.8572 96.6728 13.8572C97.3144 13.8572 97.8344 14.0637 98.2328 14.4768C98.6342 14.8899 98.851 15.4377 98.8832 16.1204L98.8876 16.3708C98.8876 16.8396 98.7968 17.2585 98.6152 17.6277C98.4365 17.9968 98.1786 18.2825 97.8417 18.4846C97.5078 18.6868 97.121 18.7878 96.6816 18.7878C96.0107 18.7878 95.4731 18.5652 95.0688 18.1199C94.6674 17.6716 94.4667 17.0754 94.4667 16.3313V16.2786ZM95.5346 16.3708C95.5346 16.8601 95.6357 17.2439 95.8378 17.5222C96.04 17.7976 96.3212 17.9353 96.6816 17.9353C97.0419 17.9353 97.3217 17.7947 97.5209 17.5134C97.7231 17.2322 97.8242 16.8206 97.8242 16.2786C97.8242 15.7981 97.7202 15.4172 97.5121 15.136C97.3071 14.8547 97.0273 14.7141 96.6728 14.7141C96.3242 14.7141 96.0473 14.8533 95.8422 15.1316C95.6371 15.407 95.5346 15.8201 95.5346 16.3708ZM99.5908 16.2786C99.5908 15.8127 99.683 15.3938 99.8676 15.0217C100.052 14.6467 100.311 14.3596 100.645 14.1604C100.979 13.9583 101.363 13.8572 101.797 13.8572C102.438 13.8572 102.958 14.0637 103.357 14.4768C103.758 14.8899 103.975 15.4377 104.007 16.1204L104.012 16.3708C104.012 16.8396 103.921 17.2585 103.739 17.6277C103.56 17.9968 103.303 18.2825 102.966 18.4846C102.632 18.6868 102.245 18.7878 101.806 18.7878C101.135 18.7878 100.597 18.5652 100.193 18.1199C99.7914 17.6716 99.5908 17.0754 99.5908 16.3313V16.2786ZM100.659 16.3708C100.659 16.8601 100.76 17.2439 100.962 17.5222C101.164 17.7976 101.445 17.9353 101.806 17.9353C102.166 17.9353 102.446 17.7947 102.645 17.5134C102.847 17.2322 102.948 16.8206 102.948 16.2786C102.948 15.7981 102.844 15.4172 102.636 15.136C102.431 14.8547 102.151 14.7141 101.797 14.7141C101.448 14.7141 101.171 14.8533 100.966 15.1316C100.761 15.407 100.659 15.8201 100.659 16.3708ZM105.906 13.9451L105.936 14.4944C106.288 14.0696 106.749 13.8572 107.321 13.8572C108.311 13.8572 108.815 14.4241 108.832 15.5579V18.7H107.765V15.6194C107.765 15.3176 107.699 15.095 107.567 14.9514C107.438 14.8049 107.226 14.7317 106.93 14.7317C106.499 14.7317 106.178 14.9265 105.967 15.3162V18.7H104.899V13.9451H105.906ZM111.966 16.2786C111.966 15.8127 112.058 15.3938 112.243 15.0217C112.427 14.6467 112.686 14.3596 113.02 14.1604C113.354 13.9583 113.738 13.8572 114.172 13.8572C114.813 13.8572 115.333 14.0637 115.732 14.4768C116.133 14.8899 116.35 15.4377 116.382 16.1204L116.387 16.3708C116.387 16.8396 116.296 17.2585 116.114 17.6277C115.935 17.9968 115.678 18.2825 115.341 18.4846C115.007 18.6868 114.62 18.7878 114.181 18.7878C113.51 18.7878 112.972 18.5652 112.568 18.1199C112.166 17.6716 111.966 17.0754 111.966 16.3313V16.2786ZM113.034 16.3708C113.034 16.8601 113.135 17.2439 113.337 17.5222C113.539 17.7976 113.82 17.9353 114.181 17.9353C114.541 17.9353 114.821 17.7947 115.02 17.5134C115.222 17.2322 115.323 16.8206 115.323 16.2786C115.323 15.7981 115.219 15.4172 115.011 15.136C114.806 14.8547 114.526 14.7141 114.172 14.7141C113.823 14.7141 113.546 14.8533 113.341 15.1316C113.136 15.407 113.034 15.8201 113.034 16.3708ZM118.281 13.9451L118.311 14.4944C118.663 14.0696 119.124 13.8572 119.696 13.8572C120.686 13.8572 121.19 14.4241 121.207 15.5579V18.7H120.14V15.6194C120.14 15.3176 120.074 15.095 119.942 14.9514C119.813 14.8049 119.601 14.7317 119.305 14.7317C118.874 14.7317 118.553 14.9265 118.342 15.3162V18.7H117.274V13.9451H118.281Z" fill="#181818"/>
</svg>
