<svg width="75" height="75" viewBox="0 0 75 75" fill="none" xmlns="http://www.w3.org/2000/svg">
<path d="M28.1251 13.4766C26.143 13.4766 24.3657 14.7325 23.7054 16.6014C23.489 17.2113 23.8084 17.8813 24.4195 18.0971C24.8198 18.241 25.2389 18.1324 25.5467 17.8772L30.4689 23.788V25.1953C30.4689 25.8425 30.993 26.3672 31.6407 26.3672C32.2885 26.3672 32.8126 25.8425 32.8126 25.1953V18.1641C32.8126 15.5793 30.7103 13.4766 28.1251 13.4766Z" fill="#40596B"/>
<path d="M24.6091 15.8203C22.461 15.8203 20.4309 16.6449 18.8481 18.1898L3.82324 34.5926L5.55132 36.1753L5.95723 35.7319L30.4685 42.4521V42.7734C30.4685 43.4206 30.9926 43.9453 31.6403 43.9453C32.2881 43.9453 32.8122 43.4206 32.8122 42.7734V24.0234C32.8122 19.5001 29.1318 15.8203 24.6091 15.8203Z" fill="#0F83FF"/>
<path d="M46.875 13.4766C48.8571 13.4766 50.6344 14.7325 51.2947 16.6014C51.5111 17.2113 51.1917 17.8813 50.5806 18.0971C50.1803 18.241 49.7612 18.1324 49.4534 17.8772L44.5313 23.788V25.1953C44.5313 25.8425 44.0071 26.3672 43.3594 26.3672C42.7116 26.3672 42.1875 25.8425 42.1875 25.1953V18.1641C42.1875 15.5793 44.2897 13.4766 46.875 13.4766Z" fill="#40596B"/>
<path d="M50.3906 15.8203C52.5387 15.8203 54.5688 16.6449 56.1516 18.1898L71.1765 34.5927L69.4484 36.1755L69.0425 35.7321L44.5313 42.4521V42.7734C44.5313 43.4206 44.0071 43.9453 43.3594 43.9453C42.7116 43.9453 42.1875 43.4206 42.1875 42.7734V24.0234C42.1875 19.5001 45.8679 15.8203 50.3906 15.8203Z" fill="#0F83FF"/>
<path d="M16.4062 58.0078C23.5255 58.0078 29.2969 52.2365 29.2969 45.1172C29.2969 37.9979 23.5255 32.2266 16.4062 32.2266C9.28695 32.2266 3.51562 37.9979 3.51562 45.1172C3.51562 52.2365 9.28695 58.0078 16.4062 58.0078Z" fill="#00B9FF"/>
<path d="M16.4062 28.7109C7.35967 28.7109 0 36.0706 0 45.1172C0 54.1638 7.35967 61.5234 16.4062 61.5234C25.4528 61.5234 32.8125 54.1638 32.8125 45.1172C32.8125 36.0706 25.4528 28.7109 16.4062 28.7109ZM16.4062 56.8359C9.94468 56.8359 4.6875 51.5788 4.6875 45.1172C4.6875 38.6556 9.94468 33.3984 16.4062 33.3984C22.8678 33.3984 28.125 38.6556 28.125 45.1172C28.125 51.5788 22.8678 56.8359 16.4062 56.8359Z" fill="#0048BD"/>
<path d="M28.1255 29.8828H46.8755L47.0557 29.8803C44.775 32.1138 43.3599 35.2276 43.3599 38.6719V42.7734H31.6411V38.6719C31.6411 35.2276 30.2259 32.1138 27.9453 29.8803" fill="#0048BD"/>
<path d="M18.75 47.4609C21.3388 47.4609 23.4375 45.3623 23.4375 42.7734C23.4375 40.1846 21.3388 38.0859 18.75 38.0859C16.1612 38.0859 14.0625 40.1846 14.0625 42.7734C14.0625 45.3623 16.1612 47.4609 18.75 47.4609Z" fill="white"/>
<path d="M58.5938 58.0078C65.713 58.0078 71.4844 52.2365 71.4844 45.1172C71.4844 37.9979 65.713 32.2266 58.5938 32.2266C51.4745 32.2266 45.7031 37.9979 45.7031 45.1172C45.7031 52.2365 51.4745 58.0078 58.5938 58.0078Z" fill="#00B9FF"/>
<path d="M58.5938 28.7109C49.5472 28.7109 42.1875 36.0706 42.1875 45.1172C42.1875 54.1638 49.5472 61.5234 58.5938 61.5234C67.6403 61.5234 75 54.1638 75 45.1172C75 36.0706 67.6403 28.7109 58.5938 28.7109ZM58.5938 56.8359C52.1322 56.8359 46.875 51.5788 46.875 45.1172C46.875 38.6556 52.1322 33.3984 58.5938 33.3984C65.0553 33.3984 70.3125 38.6556 70.3125 45.1172C70.3125 51.5788 65.0553 56.8359 58.5938 56.8359Z" fill="#0048BD"/>
<path d="M60.9375 47.4609C63.5263 47.4609 65.625 45.3623 65.625 42.7734C65.625 40.1846 63.5263 38.0859 60.9375 38.0859C58.3487 38.0859 56.25 40.1846 56.25 42.7734C56.25 45.3623 58.3487 47.4609 60.9375 47.4609Z" fill="white"/>
<path d="M46.875 27.5391H28.125V29.8828H46.875V27.5391Z" fill="#0F83FF"/>
</svg>
