<svg width="56" height="56" viewBox="0 0 56 56" fill="none" xmlns="http://www.w3.org/2000/svg">
<path d="M55.1791 7.72632H25.6064C25.1529 7.72632 24.7855 8.09371 24.7855 8.54718V16.6335C24.7855 17.087 25.1529 17.4543 25.6064 17.4543H55.1791C55.6324 17.4543 55.9999 17.087 55.9999 16.6335V8.54718C55.9999 8.09371 55.6324 7.72632 55.1791 7.72632Z" fill="#EFE7E4"/>
<path d="M55.1791 23.1358H25.6064C25.1529 23.1358 24.7855 23.5032 24.7855 23.9567V32.043C24.7855 32.4964 25.1529 32.8638 25.6064 32.8638H55.1791C55.6324 32.8638 55.9999 32.4964 55.9999 32.043V23.9567C55.9999 23.5032 55.6324 23.1358 55.1791 23.1358Z" fill="#EFE7E4"/>
<path d="M55.1791 38.5453H25.6064C25.1529 38.5453 24.7855 38.9127 24.7855 39.3662V47.4526C24.7855 47.906 25.1529 48.2735 25.6064 48.2735H55.1791C55.6324 48.2735 55.9999 47.906 55.9999 47.4526V39.3662C55.9999 38.9127 55.6324 38.5453 55.1791 38.5453Z" fill="#EFE7E4"/>
<path d="M24.7855 14.4446V16.6336C24.7855 17.0871 25.1529 17.4545 25.6064 17.4545H55.1791C55.6324 17.4545 55.9999 17.0871 55.9999 16.6336V14.4446H24.7855Z" fill="#D8D1D0"/>
<path d="M24.7855 29.8541V32.0431C24.7855 32.4966 25.1529 32.864 25.6064 32.864H55.1791C55.6324 32.864 55.9999 32.4966 55.9999 32.0431V29.8541H24.7855Z" fill="#D8D1D0"/>
<path d="M24.7855 45.2635V47.4527C24.7855 47.906 25.1529 48.2735 25.6064 48.2735H55.1791C55.6324 48.2735 55.9999 47.906 55.9999 47.4527V45.2635H24.7855Z" fill="#D8D1D0"/>
<path d="M11.5836 25.8924C11.5761 25.8922 11.5686 25.8922 11.5612 25.8924C5.2943 25.9782 0 31.1147 0 37.109V40.5607C0 41.0142 0.3675 41.3816 0.820859 41.3816H22.3238C22.7772 41.3816 23.1446 41.0142 23.1446 40.5607V37.109C23.1447 31.1147 17.8504 25.9782 11.5836 25.8924Z" fill="#00B9FF"/>
<path d="M11.5836 25.8924C11.5761 25.8922 11.5686 25.8922 11.5611 25.8924C11.0621 25.8992 10.5692 25.9384 10.0845 26.0073C15.6844 26.8021 20.169 31.5921 20.169 37.109V40.5607C20.169 41.0142 19.8016 41.3816 19.3481 41.3816H22.3238C22.7772 41.3816 23.1446 41.0142 23.1446 40.5607V37.109C23.1447 31.1147 17.8504 25.9782 11.5836 25.8924Z" fill="#00B9FF"/>
<path d="M15.1109 35.8204L13.6497 29.4767C13.562 29.0963 13.2232 28.8265 12.8328 28.8265H10.312C9.92152 28.8265 9.58268 29.0961 9.49507 29.4767L8.03382 35.8204C7.96612 36.1149 8.06182 36.423 8.28484 36.6269L11.0066 39.1181C11.1668 39.2646 11.3696 39.3379 11.5726 39.3379C11.7755 39.3379 11.9785 39.2646 12.1387 39.1181L14.8604 36.6269C15.0829 36.423 15.1786 36.1149 15.1109 35.8204Z" fill="#5B5D6E"/>
<path d="M15.1109 35.8204L13.714 29.7565H11.5723H11.1646L12.5956 35.9686L10.0806 38.2707L11.0064 39.118C11.1666 39.2646 11.3694 39.338 11.5724 39.338C11.7753 39.338 11.9783 39.2647 12.1385 39.118L14.8601 36.6269C15.0829 36.4229 15.1786 36.1148 15.1109 35.8204Z" fill="#5B5D6E"/>
<path d="M13.7312 29.7565L15.3767 26.5816C14.1825 26.1538 12.9049 25.9105 11.5836 25.8924C11.5762 25.8922 11.5686 25.8922 11.5612 25.8924C10.2528 25.9103 8.98694 26.1491 7.80273 26.5691L9.41788 29.7564H13.7312V29.7565Z" fill="#515262"/>
<path d="M13.0152 26.0016L11.1647 29.7566H11.5723H13.7312L15.3767 26.5817C14.6197 26.3106 13.8292 26.1141 13.0152 26.0016Z" fill="#515262"/>
<path d="M39.3744 7.72632H25.6064C25.1529 7.72632 24.7855 8.09371 24.7855 8.54718V16.6335C24.7855 17.087 25.1529 17.4543 25.6064 17.4543H39.3744C39.8279 17.4543 40.1953 17.087 40.1953 16.6335V8.54718C40.1954 8.09371 39.8279 7.72632 39.3744 7.72632Z" fill="#0048BD"/>
<path d="M49.8576 23.1358H25.6064C25.1529 23.1358 24.7855 23.5032 24.7855 23.9567V32.043C24.7855 32.4964 25.1529 32.8638 25.6064 32.8638H49.8575C50.3109 32.8638 50.6783 32.4964 50.6783 32.043V23.9567C50.6785 23.5032 50.3109 23.1358 49.8576 23.1358Z" fill="#0048BD"/>
<path d="M44.8125 38.5453H25.6064C25.1529 38.5453 24.7855 38.9127 24.7855 39.3662V47.4526C24.7855 47.906 25.1529 48.2735 25.6064 48.2735H44.8125C45.266 48.2735 45.6334 47.906 45.6334 47.4526V39.3662C45.6335 38.9127 45.2659 38.5453 44.8125 38.5453Z" fill="#0048BD"/>
<path d="M24.7855 14.4446V16.6336C24.7855 17.0871 25.1529 17.4545 25.6064 17.4545H39.3744C39.8279 17.4545 40.1953 17.0871 40.1953 16.6336V14.4446H24.7855Z" fill="#0048BD"/>
<path d="M24.7855 29.8541V32.0431C24.7855 32.4966 25.1529 32.864 25.6064 32.864H49.8575C50.3109 32.864 50.6783 32.4966 50.6783 32.0431V29.8541H24.7855Z" fill="#0048BD"/>
<path d="M24.7855 45.2635V47.4527C24.7855 47.906 25.1529 48.2735 25.6064 48.2735H44.8125C45.266 48.2735 45.6334 47.906 45.6334 47.4527V45.2635H24.7855Z" fill="#0048BD"/>
<path d="M11.5722 11.2033C8.28639 11.2033 5.61316 13.8765 5.61316 17.1624V21.5841C5.61316 24.8699 8.28639 27.5432 11.5722 27.5432C14.8581 27.5432 17.5313 24.8699 17.5313 21.5841V17.1624C17.5314 13.8765 14.8581 11.2033 11.5722 11.2033Z" fill="#FFC89F"/>
<path d="M11.5723 11.2033C11.0516 11.2033 10.5464 11.2709 10.0646 11.397C12.6227 12.0665 14.5159 14.3973 14.5159 17.1624V21.5841C14.5159 24.3492 12.6227 26.68 10.0646 27.3495C10.5464 27.4756 11.0515 27.5432 11.5723 27.5432C14.8582 27.5432 17.5314 24.8699 17.5314 21.5841V17.1624C17.5315 13.8765 14.8582 11.2033 11.5723 11.2033Z" fill="#F7B081"/>
<path d="M17.5316 19.3726V17.1625C17.5316 13.8768 14.8583 11.2034 11.5725 11.2034C8.28664 11.2034 5.6134 13.8767 5.6134 17.1625V19.3732H6.43426C10.9253 19.3732 12.5613 16.3407 12.5613 16.3407C12.5613 16.3407 13.705 19.3585 16.7107 19.3725L17.5316 19.3726Z" fill="black"/>
</svg>
