<svg width="53" height="53" viewBox="0 0 53 53" fill="none" xmlns="http://www.w3.org/2000/svg">
<path d="M25.5859 3.65514H47.5169C49.5273 3.65514 51.172 5.3 51.172 7.31027V20.1033C51.172 22.1137 49.5272 23.7585 47.5169 23.7585H35.6376V27.2244C35.6376 27.6315 35.1453 27.8352 34.8577 27.5474L31.0686 23.7586H25.5858C23.5754 23.7586 21.9307 22.1137 21.9307 20.1034V7.31037C21.9308 5.3 23.5755 3.65514 25.5859 3.65514Z" fill="#C7CFE2"/>
<path d="M46.5718 10.9655H32.8961V9.13793H40.1755C40.6621 9.13793 41.0868 8.77066 41.1184 8.28517C41.1528 7.753 40.7318 7.31037 40.2065 7.31037H32.8961V3.65514H31.0686C31.0686 3.65514 31.0686 15.6826 31.0686 16.4482C31.0686 18.4586 29.4237 20.1033 27.4135 20.1033H21.9307C21.9307 20.7712 22.1253 21.3906 22.4415 21.9309H27.4135C30.4366 21.9309 32.8963 19.4713 32.8963 16.4481H36.5231C36.9811 16.4481 37.3903 16.1233 37.4555 15.6699C37.5365 15.105 37.1012 14.6205 36.5514 14.6205H32.8963V12.793H46.6031C47.1285 12.793 47.5495 12.3504 47.515 11.8182C47.4833 11.3328 47.0585 10.9655 46.5718 10.9655Z" fill="#AFB9D2"/>
<path d="M46.6035 9.13793H43.8621C43.357 9.13793 42.9482 8.72874 42.9482 8.2241C42.9482 7.71946 43.3569 7.31026 43.8621 7.31026H46.6035C47.1085 7.31026 47.5173 7.71946 47.5173 8.2241C47.5173 8.72874 47.1086 9.13793 46.6035 9.13793Z" fill="#959CB3"/>
<path d="M46.6033 16.4483H40.2068C39.7018 16.4483 39.293 16.0391 39.293 15.5345C39.293 15.0298 39.7016 14.6206 40.2068 14.6206H46.6033C47.1084 14.6206 47.5172 15.0298 47.5172 15.5345C47.5172 16.0391 47.1085 16.4483 46.6033 16.4483Z" fill="#959CB3"/>
<path d="M46.6034 20.1034H33.8103C33.3053 20.1034 32.8965 19.6942 32.8965 19.1896C32.8965 18.6849 33.3052 18.2757 33.8103 18.2757H46.6034C47.1084 18.2757 47.5172 18.6849 47.5172 19.1896C47.5172 19.6942 47.1085 20.1034 46.6034 20.1034Z" fill="#AFB9D2"/>
<path d="M27.4133 0H5.48228C3.4719 0 1.82715 1.64486 1.82715 3.65513V16.4482C1.82715 18.4586 3.47201 20.1033 5.48228 20.1033H17.3616V23.5692C17.3616 23.9763 17.8538 24.1801 18.1415 23.8923L21.9306 20.1034H27.4134C29.4237 20.1034 31.0685 18.4586 31.0685 16.4483V3.65513C31.0684 1.64486 29.4236 0 27.4133 0Z" fill="#E4EAF6"/>
<path d="M9.13853 5.4828H6.39723C5.89218 5.4828 5.4834 5.07361 5.4834 4.56897C5.4834 4.06433 5.89208 3.65514 6.39723 3.65514H9.13863C9.64369 3.65514 10.0525 4.06433 10.0525 4.56897C10.0525 5.07361 9.64369 5.4828 9.13853 5.4828Z" fill="#AFB9D2"/>
<path d="M26.5006 5.4828H12.7937C12.2887 5.4828 11.8799 5.07361 11.8799 4.56897C11.8799 4.06433 12.2886 3.65514 12.7937 3.65514H26.5006C27.0057 3.65514 27.4144 4.06433 27.4144 4.56897C27.4144 5.07361 27.0057 5.4828 26.5006 5.4828Z" fill="#C7CFE2"/>
<path d="M26.5007 9.13794H6.39723C5.89218 9.13794 5.4834 8.72874 5.4834 8.22411C5.4834 7.71947 5.89208 7.31027 6.39723 7.31027H26.5007C27.0057 7.31027 27.4145 7.71947 27.4145 8.22411C27.4144 8.72874 27.0057 9.13794 26.5007 9.13794Z" fill="#C7CFE2"/>
<path d="M26.5 12.7931H23.7586C23.2535 12.7931 22.8447 12.3839 22.8447 11.8792C22.8447 11.3746 23.2534 10.9654 23.7586 10.9654H26.5C27.005 10.9654 27.4138 11.3746 27.4138 11.8792C27.4137 12.384 27.005 12.7931 26.5 12.7931Z" fill="#AFB9D2"/>
<path d="M20.104 12.7931H6.39723C5.89218 12.7931 5.4834 12.3839 5.4834 11.8792C5.4834 11.3746 5.89208 10.9654 6.39723 10.9654H20.1041C20.6092 10.9654 21.018 11.3746 21.018 11.8792C21.0179 12.384 20.6092 12.7931 20.104 12.7931Z" fill="#C7CFE2"/>
<path d="M26.5007 16.4483H6.39723C5.89218 16.4483 5.4834 16.0391 5.4834 15.5345C5.4834 15.0298 5.89208 14.6206 6.39723 14.6206H26.5007C27.0057 14.6206 27.4145 15.0298 27.4145 15.5345C27.4144 16.0391 27.0057 16.4483 26.5007 16.4483Z" fill="#C7CFE2"/>
<path d="M17.5026 45.8302V42.878H9.91113V45.8302L13.7068 49.2041L17.5026 45.8302Z" fill="#FDD7BD"/>
<path d="M23.3715 47.2111L18.1528 45.9832C18.074 45.9647 18.0015 45.9332 17.9338 45.895L13.7068 48.3605L9.64455 45.7756C9.53938 45.8746 9.40895 45.9481 9.26061 45.983L4.04188 47.2109C3.2798 47.3904 2.74121 48.0704 2.74121 48.8532V52.1564C2.74121 52.6222 3.11884 52.9999 3.58476 52.9999H23.8288C24.2946 52.9999 24.6723 52.6223 24.6723 52.1564V48.8532C24.6722 48.0705 24.1337 47.3904 23.3715 47.2111Z" fill="#0F83FF"/>
<path d="M9.91113 42.878V45.9928C14.6928 47.7156 17.5026 43.4039 17.5026 43.4039V42.878H9.91113Z" fill="#F4B798"/>
<path d="M8.22363 33.1776L8.59122 41.2631C8.62558 42.0185 8.99596 42.7189 9.6008 43.1726L11.3446 44.4804C11.7827 44.8089 12.3154 44.9865 12.8629 44.9865H14.5499C15.0974 44.9865 15.6302 44.8088 16.0681 44.4804L17.812 43.1726C18.4169 42.7189 18.7872 42.0185 18.8216 41.2631L19.189 33.1775H8.22363V33.1776Z" fill="#FDD7BD"/>
<path d="M12.4411 34.8647C14.128 34.8647 16.6586 34.443 17.2588 33.1777H8.22363L8.59111 41.2633C8.62548 42.0187 8.99586 42.7191 9.6007 43.1728L11.3445 44.4807C11.7826 44.8092 12.3153 44.9868 12.8628 44.9868H13.7063C12.8628 44.9868 11.1758 43.2998 11.1758 41.191C11.1758 40.1596 11.1758 37.3952 11.1758 36.1299C11.1759 35.7081 11.5975 34.8647 12.4411 34.8647Z" fill="#FAC5AA"/>
<path d="M21.5755 50.2627L24.3084 47.8078C24.5374 48.0978 24.6718 48.4626 24.6718 48.8533V52.1565C24.6718 52.6223 24.2942 53 23.8282 53H20.876V51.8316C20.876 51.233 21.1303 50.6626 21.5755 50.2627Z" fill="#0048BD"/>
<path d="M5.83746 50.2627L3.10455 47.8078C2.87557 48.0978 2.74121 48.4626 2.74121 48.8533V52.1565C2.74121 52.6223 3.11884 53 3.58476 53H6.53702V51.8316C6.53712 51.233 6.28278 50.6626 5.83746 50.2627Z" fill="#0048BD"/>
<path d="M14.7621 52.9999H12.6533L12.917 49.2041H14.4986L14.7621 52.9999Z" fill="#5B5D6E"/>
<path d="M14.7621 48.3605H12.6533V48.6042C12.6533 49.1685 13.1107 49.6258 13.6749 49.6258H13.7403C14.3046 49.6258 14.7619 49.1685 14.7619 48.6042V48.3605H14.7621Z" fill="#515262"/>
<path d="M9.85156 44.8911L13.7065 48.3605C13.7065 48.3605 12.6268 48.9056 11.2946 50.004C11.0197 50.2306 10.604 50.1387 10.4566 49.8144L8.64551 45.8299L9.21846 44.9705C9.36111 44.7567 9.66037 44.7191 9.85156 44.8911Z" fill="#0048BD"/>
<path d="M17.5619 44.8911L13.707 48.3605C13.707 48.3605 14.7867 48.9056 16.1189 50.004C16.3938 50.2306 16.8095 50.1387 16.9569 49.8144L18.768 45.8299L18.195 44.9705C18.0524 44.7567 17.7531 44.7191 17.5619 44.8911Z" fill="#0048BD"/>
<path d="M16.2637 30.3835L16.6591 33.1777C18.464 33.5387 18.724 36.3711 18.7615 37.1802C18.7683 37.3269 18.8152 37.4688 18.8948 37.5923L19.5835 38.6604C19.5835 38.6604 19.3477 36.8943 20.4271 35.7082C20.427 35.7081 20.7974 28.6965 16.2637 30.3835Z" fill="#785550"/>
<path d="M20.0071 38.4799L19.5308 40.385C19.4744 40.6107 19.2715 40.769 19.0388 40.769C18.783 40.769 18.5674 40.5787 18.5356 40.3249L18.292 38.3764C18.2269 37.8553 18.6332 37.3951 19.1583 37.3951H19.1601C19.728 37.3952 20.1449 37.9289 20.0071 38.4799Z" fill="#FDD7BD"/>
<path d="M8.62834 29.628L9.25222 30.0541C6.43184 32.1365 6.95894 35.7082 6.95894 35.7082C7.80249 36.5517 7.80249 38.6604 7.80249 38.6604L8.64604 37.8169C8.64604 37.8169 8.32048 35.3802 9.91131 34.4429C11.3874 33.5731 12.6791 34.0212 13.997 34.0212C17.5291 34.0212 18.5176 32.69 18.3463 31.0689C18.2577 30.23 16.9751 28.4829 13.707 28.5384C12.388 28.5607 9.9112 28.9601 8.62834 29.628Z" fill="#694B4B"/>
<path d="M8.38238 33.652C8.38238 33.652 7.93426 31.8859 9.25222 30.0539C6.43184 32.1364 6.95894 35.7081 6.95894 35.7081C7.80249 36.5516 7.80249 38.6603 7.80249 38.6603L8.64604 37.8168C8.64604 37.8168 8.32048 35.3801 9.91131 34.4428C11.3874 33.573 12.6791 34.0211 13.997 34.0211C14.5714 34.0211 15.0721 33.9826 15.5178 33.9166C12.7975 34.008 11.194 31.9476 8.38238 33.652Z" fill="#5A4146"/>
<path d="M7.40736 38.4799L7.88363 40.385C7.94005 40.6107 8.14294 40.769 8.37564 40.769C8.63143 40.769 8.84705 40.5787 8.87883 40.3249L9.1224 38.3764C9.18752 37.8553 8.78122 37.3951 8.25608 37.3951H8.25432C7.68644 37.3952 7.26958 37.9289 7.40736 38.4799Z" fill="#FAC5AA"/>
<path d="M18.7678 52.1564H16.659C16.1932 52.1564 15.8154 52.534 15.8154 52.9999H19.6112C19.6112 52.534 19.2336 52.1564 18.7678 52.1564Z" fill="#0048BD"/>
<path d="M37.4656 28.8112C28.9576 28.8112 29.9009 39.1576 29.9397 46.6554C29.9412 46.9386 30.0895 47.1939 30.3321 47.3401C31.2749 47.9085 33.8641 49.2372 37.4656 49.2372C41.0671 49.2372 43.6564 47.9085 44.5992 47.3401C44.8417 47.1939 44.99 46.9386 44.9915 46.6554C45.0303 39.1578 45.9737 28.8112 37.4656 28.8112Z" fill="#694B4B"/>
<path d="M36.9178 28.8327C29.005 29.2763 29.9022 39.3246 29.9402 46.6554C29.9416 46.9386 30.0899 47.1939 30.3325 47.3401C31.2753 47.9085 33.8645 49.2372 37.466 49.2372L39.6162 34.1865" fill="#5A4146"/>
<path d="M37.4657 28.8112C32.628 28.8112 32.292 34.6568 32.292 34.6568C35.0804 34.1864 36.7938 35.3622 39.6158 34.1864L37.4657 49.2372C41.0673 49.2372 43.6564 47.9085 44.5993 47.3401C44.8418 47.1939 44.9901 46.9386 44.9916 46.6554C45.0304 39.1578 45.9737 28.8112 37.4657 28.8112Z" fill="#694B4B"/>
<path d="M44.9911 46.6554C45.0244 40.2127 45.72 31.6728 40.5183 29.3953C40.4276 29.8666 40.2633 31.1823 40.6904 32.0364C41.7655 34.1865 42.8405 34.1865 43.9155 35.7991C44.9906 41.7119 41.8614 47.9876 40.822 48.8419C42.6635 48.4039 43.9834 47.711 44.5987 47.3401C44.8413 47.1939 44.9897 46.9387 44.9911 46.6554Z" fill="#785550"/>
<path d="M45.6107 48.2862L40.8143 46.2877C40.4137 46.1209 40.1527 45.7294 40.1527 45.2953V43.9964H34.7775V45.2953C34.7775 45.7294 34.5165 46.1209 34.1159 46.2877L29.3196 48.2862C28.7186 48.5366 28.3271 49.1237 28.3271 49.7748V51.9249C28.3271 52.5187 28.8085 53 29.4023 53H45.5279C46.1217 53 46.603 52.5187 46.603 51.9249V49.7748C46.603 49.1237 46.2116 48.5366 45.6107 48.2862Z" fill="#FDD7BD"/>
<path d="M45.6106 48.2862L40.9731 46.3539L37.4651 47.8679L33.957 46.3539L29.3196 48.2862C28.7186 48.5366 28.3271 49.1237 28.3271 49.7748V51.9249C28.3271 52.5187 28.8085 53 29.4023 53H45.5279C46.1217 53 46.603 52.5187 46.603 51.9249V49.7748C46.6029 49.1237 46.2115 48.5366 45.6106 48.2862Z" fill="#0048BD"/>
<path d="M40.153 43.9963H34.7778V45.2952C34.7778 45.7293 34.5168 46.1208 34.1162 46.2876L33.3672 46.5998C39.0998 48.0616 40.153 43.9963 40.153 43.9963Z" fill="#F4B798"/>
<path d="M30.9471 50.3656L28.7895 48.6495C28.5004 48.9451 28.3271 49.3449 28.3271 49.7748V51.9249C28.3271 52.5187 28.8085 53 29.4023 53H31.5524V51.625C31.5523 51.135 31.3296 50.6716 30.9471 50.3656Z" fill="#00B9FF"/>
<path d="M46.602 51.9248V49.7747C46.602 49.3481 46.4316 48.951 46.1466 48.6561L43.9821 50.3655C43.5996 50.6715 43.377 51.1349 43.377 51.6247V52.9999H45.5271C46.1207 52.9999 46.602 52.5186 46.602 51.9248Z" fill="#00B9FF"/>
<path d="M37.5459 51.9248H37.3847C37.1323 51.9248 36.9277 51.7202 36.9277 51.4679V47.8692H38.0028V51.4679C38.0027 51.7202 37.7982 51.9248 37.5459 51.9248Z" fill="#A0D2F0"/>
<path d="M37.4643 47.8679L34.3878 45.5606C34.1903 45.4124 33.909 45.4606 33.772 45.6659L33.1641 46.5778L35.0502 49.2185C35.1936 49.4192 35.4762 49.4584 35.6687 49.3044L37.4643 47.8679Z" fill="#00B9FF"/>
<path d="M37.4648 47.8679L40.5413 45.5606C40.7388 45.4124 41.0202 45.4606 41.1571 45.6659L41.7651 46.5778L39.8789 49.2185C39.7356 49.4192 39.453 49.4584 39.2604 49.3044L37.4648 47.8679Z" fill="#00B9FF"/>
<path d="M40.1535 33.649C37.4659 36.3366 32.1914 34.1866 32.1914 38.4867L32.5251 41.6543C32.5895 42.3629 33.0003 42.9937 33.6222 43.3392L36.6827 45.0395C37.1698 45.3101 37.7619 45.3101 38.2489 45.0395L41.3094 43.3392C41.9314 42.9937 42.3421 42.3629 42.4065 41.6543L42.7918 37.8923C42.8192 37.625 42.825 37.3559 42.816 37.0876C42.615 35.7194 40.6909 34.724 40.1535 33.649Z" fill="#FDD7BD"/>
<path d="M32.1914 38.4867L32.5251 41.6543C32.5895 42.3629 33.0003 42.9937 33.6222 43.3392L36.6827 45.0395C37.0207 45.2272 37.4083 45.2758 37.7772 45.203C37.7772 45.203 36.2342 44.7353 35.3158 42.2494C35.0345 41.4878 34.644 37.4564 34.9799 36.9637C35.644 35.9898 39.3472 35.8886 40.4415 34.0819C40.3874 34.0149 40.3376 33.9477 40.292 33.8804C40.2884 33.875 40.2839 33.8695 40.2802 33.864C40.2327 33.7925 40.1896 33.7209 40.1535 33.6489C37.4659 36.3367 32.1914 34.1865 32.1914 38.4867Z" fill="#FAC5AA"/>
<path d="M41.3895 51.9248H39.992C39.4873 51.9248 39.0781 52.334 39.0781 52.8386V52.9999H42.3032V52.8386C42.3034 52.334 41.8942 51.9248 41.3895 51.9248Z" fill="#00B9FF"/>
</svg>
