<svg width="69" height="69" viewBox="0 0 69 69" fill="none" xmlns="http://www.w3.org/2000/svg">
<g clip-path="url(#clip0)">
<path d="M40.968 63.8427H28.0303L29.1135 59.3304L30.1601 54.9771H38.8398L39.8847 59.3304L40.968 63.8427Z" fill="#CCCCCC"/>
<path d="M39.8844 59.3304H29.1133L30.1599 54.9771L33.681 50.6608L38.8396 54.9771L39.8844 59.3304Z" fill="#999999"/>
<path d="M69 8.46718V50.4114C69 52.933 66.9556 54.9774 64.434 54.9774H4.56599C2.04439 54.9771 0 52.933 0 50.4114V8.46718C0 5.94558 2.04439 3.90118 4.56599 3.90118H64.4341C66.9556 3.90105 69 5.94558 69 8.46718Z" fill="#CCCCCC"/>
<path d="M68.9999 8.46718V50.4114C68.9999 52.933 66.9555 54.9774 64.4339 54.9774H27.7539L42.0746 3.90118H64.4339C66.9555 3.90105 68.9999 5.94558 68.9999 8.46718Z" fill="#E6E6E6"/>
<path d="M69 10.165H0V48.7136H69V10.165Z" fill="#0048BD"/>
<path d="M69.0003 10.165V48.7136H29.5107L40.3187 10.165H69.0003Z" fill="#0048BD"/>
<path d="M45.0487 62.5872H23.9502V65.0986H45.0487V62.5872Z" fill="#E6E6E6"/>
<path d="M69 9.4115H0V10.9184H69V9.4115Z" fill="#B3B3B3"/>
<path d="M69 48.0891H0V49.5961H69V48.0891Z" fill="#B3B3B3"/>
<path d="M28.6728 37.6054L16.2412 29.4393L28.6728 21.273L30.0517 23.3723L20.8157 29.4393L30.0517 35.5063L28.6728 37.6054Z" fill="#00B9FF"/>
<path d="M53.4289 29.4401L40.9969 37.6058L39.6172 35.5063L48.8546 29.4401L39.6172 23.3721L40.9969 21.2725L53.4289 29.4401Z" fill="#4D4D4D"/>
<path d="M39.3925 17.5941L32.6985 41.949L31.4997 41.6194L30.2773 41.2845L36.9698 16.9293L38.3176 17.2995L39.3925 17.5941Z" fill="#0F83FF"/>
<path d="M38.317 17.2994L39.3918 17.594L32.6979 41.949L31.499 41.6194L38.317 17.2994Z" fill="#00B9FF"/>
<path d="M53.4279 29.4401L40.9959 37.6058L39.6162 35.5063L48.8536 29.4401L39.6162 23.3721L40.9959 21.2725L53.4279 29.4401Z" fill="#00B9FF"/>
</g>
<defs>
<clipPath id="clip0">
<rect width="69" height="69" fill="white"/>
</clipPath>
</defs>
</svg>
