<svg width="53" height="53" viewBox="0 0 53 53" fill="none" xmlns="http://www.w3.org/2000/svg">
<g clip-path="url(#clip0)">
<path d="M46.0018 0.413643H16.4924C12.6434 0.413643 9.49414 3.5629 9.49414 7.41192V9.79319H36.1878C40.0368 9.79319 43.1861 12.9425 43.1861 16.7915V34.2387H46.0018C49.8508 34.2387 53.0001 31.0895 53.0001 27.2404V7.41192C53.0001 3.5628 49.8508 0.413643 46.0018 0.413643Z" fill="#00B9FF"/>
<path d="M41.04 9.47323H11.5306C10.823 9.47323 10.1392 9.58047 9.49414 9.77819V9.7932H36.1878C40.0368 9.7932 43.1861 12.9425 43.1861 16.7915V34.2387H46.0017C46.7094 34.2387 47.3931 34.1315 48.0382 33.9338V16.4715C48.0383 12.6225 44.889 9.47323 41.04 9.47323Z" fill="#00B9FF"/>
<path d="M36.5077 9.47323H6.99828C3.14926 9.47323 0 12.6225 0 16.4715V36.2999C0 40.149 3.14926 43.2982 6.99828 43.2982H24.7094C25.4687 43.2982 26.0355 44.0048 25.8618 44.7439C25.3922 46.7435 24.6735 48.8581 23.611 51.0259C23.1339 51.9994 24.2192 52.9891 25.1412 52.4186C27.8068 50.7688 31.5994 48.0078 34.7934 44.1045C35.2132 43.5914 35.8447 43.2981 36.5077 43.2981C40.3567 43.2981 43.506 40.1489 43.506 36.2998V16.4714C43.506 12.6225 40.3567 9.47323 36.5077 9.47323Z" fill="#0048BD"/>
<path d="M30.3945 44.7439C30.5681 44.0047 30.0014 43.2982 29.2421 43.2982H24.7099C25.4692 43.2982 26.0359 44.0047 25.8623 44.7439C25.3927 46.7435 24.6739 48.8581 23.6115 51.0259C23.1344 51.9994 24.2197 52.9891 25.1416 52.4186C26.1644 51.7856 27.3532 50.9884 28.6103 50.0265C29.4211 48.2085 29.9973 46.4349 30.3945 44.7439Z" fill="#0048BD"/>
<path d="M4.53222 36.2999V16.4715C4.53222 12.6225 7.68148 9.47323 11.5305 9.47323H6.99828C3.14926 9.47323 0 12.6225 0 16.4715V36.2999C0 40.1489 3.14926 43.2982 6.99828 43.2982H11.5305C7.68138 43.2982 4.53222 40.149 4.53222 36.2999Z" fill="#0048BD"/>
<path d="M9.70118 29.2774C10.9837 29.2774 12.0234 28.2377 12.0234 26.9552C12.0234 25.6726 10.9837 24.6329 9.70118 24.6329C8.41862 24.6329 7.37891 25.6726 7.37891 26.9552C7.37891 28.2377 8.41862 29.2774 9.70118 29.2774Z" fill="white"/>
<path d="M17.2022 29.2774C18.4847 29.2774 19.5244 28.2377 19.5244 26.9552C19.5244 25.6726 18.4847 24.6329 17.2022 24.6329C15.9196 24.6329 14.8799 25.6726 14.8799 26.9552C14.8799 28.2377 15.9196 29.2774 17.2022 29.2774Z" fill="white"/>
<path d="M24.7021 29.2774C25.9847 29.2774 27.0244 28.2377 27.0244 26.9552C27.0244 25.6726 25.9847 24.6329 24.7021 24.6329C23.4196 24.6329 22.3799 25.6726 22.3799 26.9552C22.3799 28.2377 23.4196 29.2774 24.7021 29.2774Z" fill="white"/>
<path d="M32.2031 29.2774C33.4857 29.2774 34.5254 28.2377 34.5254 26.9552C34.5254 25.6726 33.4857 24.6329 32.2031 24.6329C30.9206 24.6329 29.8809 25.6726 29.8809 26.9552C29.8809 28.2377 30.9206 29.2774 32.2031 29.2774Z" fill="white"/>
<path d="M9.70118 26.9552C9.70118 26.0958 10.1684 25.3459 10.8623 24.9444C10.5206 24.7467 10.1243 24.6329 9.70118 24.6329C8.41862 24.6329 7.37891 25.6726 7.37891 26.9552C7.37891 28.2377 8.41862 29.2774 9.70118 29.2774C10.1243 29.2774 10.5207 29.1637 10.8623 28.966C10.1683 28.5644 9.70118 27.8145 9.70118 26.9552Z" fill="#F0F6F9"/>
<path d="M17.2012 26.9552C17.2012 26.0958 17.6684 25.3459 18.3623 24.9444C18.0206 24.7467 17.6243 24.6329 17.2012 24.6329C15.9186 24.6329 14.8789 25.6726 14.8789 26.9552C14.8789 28.2377 15.9186 29.2774 17.2012 29.2774C17.6243 29.2774 18.0206 29.1637 18.3623 28.966C17.6683 28.5644 17.2012 27.8145 17.2012 26.9552Z" fill="#F0F6F9"/>
<path d="M24.7022 26.9552C24.7022 26.0958 25.1694 25.3459 25.8633 24.9444C25.5216 24.7467 25.1252 24.6329 24.7022 24.6329C23.4196 24.6329 22.3799 25.6726 22.3799 26.9552C22.3799 28.2377 23.4196 29.2774 24.7022 29.2774C25.1253 29.2774 25.5217 29.1637 25.8633 28.966C25.1694 28.5644 24.7022 27.8145 24.7022 26.9552Z" fill="#F0F6F9"/>
<path d="M32.2031 26.9552C32.2031 26.0958 32.6703 25.3459 33.3643 24.9444C33.0226 24.7467 32.6262 24.6329 32.2031 24.6329C30.9206 24.6329 29.8809 25.6726 29.8809 26.9552C29.8809 28.2377 30.9206 29.2774 32.2031 29.2774C32.6263 29.2774 33.0227 29.1637 33.3643 28.966C32.6703 28.5644 32.2031 27.8145 32.2031 26.9552Z" fill="#F0F6F9"/>
</g>
<defs>
<clipPath id="clip0">
<rect width="53" height="53" fill="white"/>
</clipPath>
</defs>
</svg>
